[
  {
    "text": "Кто является автором языка JavaScript?",
    "timeout": 45,
    "key": 1,
    "options": [
      "Джеймс Гослинг",
      "Брендан Эйх",
      "Дэн Абрамов",
      "Билл Гейтс"
    ]
  },
  {
    "text": "Что позволяет сделать CORS?",
    "timeout": 60,
    "key": 0,
    "options": [
      "Позволяет получить доступ к ресурсам другого домена",
      "Предоставляет средство для запуска скриптов в фоновом потоке браузера",
      "Позволяет выполнять запросы в offline",
      "Такой технологии нет"
    ]
  },
  {
    "text": "Какой JS-объект отвечает за организацию AJAX в браузерах, отличных от IE?",
    "timeout": 45,
    "key": 3,
    "options": [
      "XMLHttpRemote",
      "XMLHttpResponse",
      "XMLHtmlRequest",
      "XMLHttpRequest"
    ]
  },
  {
    "text": "Какой единицы измерения нет в CSS?",
    "timeout": 45,
    "key": 3,
    "options": [
      "mm",
      "in",
      "pc",
      "cd"
    ]
  },
  {
    "text": "Как сделать первый символ каждого слова в предложении в заглавным?",
    "timeout": 45,
    "key": 0,
    "options": [
      "text-transform: capitalize",
      "transform: capitalize",
      "Такой возможности в CSS нет",
      "text-style: capitalize"
    ]
  },
  {
    "text": "Какое значение по-умолчанию имеет CSS свойство <b>position</b>",
    "timeout": 45,
    "key": 1,
    "options": [
      "relative",
      "static",
      "initial",
      "unset"
    ]
  },
  {
    "text": "Чему будет равно?</br><code>NaN !== NaN</code>",
    "timeout": 45,
    "key": 0,
    "options": [
      "true",
      "false",
      "SyntaxError",
      "NaN"
    ]
  },
  {
    "text": "Чему будет равно?</br><code>'0.5' === .5</code>",
    "timeout": 45,
    "key": 1,
    "options": [
      "true",
      "false",
      "SyntaxError",
      "NaN"
    ]
  },
  {
    "text": "Какая запись числа покажет SyntaxError в JavaScript?",
    "timeout": 45,
    "key": 2,
    "options": [
      "4.3",
      "0x38",
      "#011",
      "3e5"
    ]
  },
  {
    "text": "Чему будет равен вызов функции?</br><code>'horses'.replace(/[s]/, 'z')</code>",
    "timeout": 60,
    "key": 1,
    "options": [
      "undefined",
      "horzes",
      "horzez",
      "horsez"
    ]
  },
  {
    "text": "Какие значения будут выведены в консоль?</br><code>var a = 0;</br>(function() {</br>&nbsp;&nbsp;console.log(a);</br>&nbsp;&nbsp;console.log(foo());</br>&nbsp;&nbsp;var a = 1;</br>&nbsp;&nbsp;function foo() {</br>&nbsp;&nbsp;&nbsp;&nbsp;return 2;</br>&nbsp;&nbsp;}</br>})();</code>",
    "timeout": 60,
    "key": 2,
    "options": [
      "0, 2",
      "1, 2",
      "undefined, 2",
      "undefined, undefined"
    ]
  },
  {
    "text": "Какое значение будет выведено в консоль?</br><code>var a = [1, 2, 3];</br>var b = [4, 5, 6];</br>Array.prototype.push.apply(a, b);</br>console.log(a);</code>",
    "timeout": 60,
    "key": 2,
    "options": [
      "[1, 2, 3]",
      "[4, 5, 6]",
      "[1, 2, 3, 4, 5, 6]",
      "[1, 2, 3, [4, 5, 6]]"
    ]
  },
  {
    "text": "Какое значение будет выведено в консоль?</br><code>var count = 0;</br>for (var i = 0; i <= 20; i += 10) {</br>&nbsp;&nbsp;count += i;</br>}</br>console.log(count);</code>",
    "timeout": 60,
    "key": 1,
    "options": [
      "0",
      "30",
      "210",
      "Infinity"
    ]
  },
  {
    "text": "Какое значение будет выведено в консоль?</br><code>var a = 2, b = 5;</br>console.log(++a + b++);</code>",
    "timeout": 60,
    "key": 2,
    "options": [
      "6",
      "7",
      "8",
      "9"
    ]
  },
  {
    "text": "Какая директива прекращает выполнение цикла и передаёт управление на строку за его телом?",
    "timeout": 45,
    "key": 0,
    "options": [
      "break",
      "continue",
      "abort",
      "return"
    ]
  }
]
